[
    {"category":"Purchase","keywords":{"living room":{"bool":false,"weight":0.75},"bedroom":{"bool":false,"weight":0.75},"sofa":{"bool":false,"weight":0.75},"dining room":{"bool":false,"weight":0.75},"loung":{"bool":false,"weight":0.75},"hallwai":{"bool":false,"weight":0.75},"order":{"bool":false,"weight":0.75},"financ":{"bool":false,"weight":0.75}}},
    {"category":"Store","keywords":{"clean":{"bool":false,"weight":0.75},"friendli":{"bool":false,"weight":0.75},"staff":{"bool":false,"weight":0.75},"covid":{"bool":false,"weight":0.75},"social distanc":{"bool":false,"weight":0.75},"park":{"bool":false,"weight":0.75},"attitud":{"bool":false,"weight":0.75},"behaviour":{"bool":false,"weight":0.75}}},
    {"category":"Delivery","keywords":{"unpackag":{"bool":false,"weight":0.75},"delivery fe":{"bool":false,"weight":0.75},"assembl":{"bool":false,"weight":0.75},"doorstep deliveri":{"bool":false,"weight":0.75},"premium deliveri":{"bool":false,"weight":0.75},"standard deliveri":{"bool":false,"weight":0.75},"driver":{"bool":false,"weight":0.75},"drive":{"bool":false,"weight":0.75},"attitud":{"bool":false,"weight":0.75},"behaviour":{"bool":false,"weight":0.75},"room of choic":{"bool":false,"weight":0.75},"help":{"bool":false,"weight":0.75},"unbox":{"bool":false,"weight":0.75},"explain":{"bool":false,"weight":0.75},"clean":{"bool":false,"weight":0.75},"damag":{"bool":false,"weight":0.75},"scuff":{"bool":false,"weight":0.75},"oversho":{"bool":false,"weight":0.75},"dirt":{"bool":false,"weight":0.75},"effici":{"bool":false,"weight":0.75},"friendli":{"bool":false,"weight":0.75},"care":{"bool":false,"weight":0.75},"attent":{"bool":false,"weight":0.75},"easi":{"bool":false,"weight":0.75},"difficult":{"bool":false,"weight":0.75},"bannist":{"bool":false,"weight":0.75},"staircas":{"bool":false,"weight":0.75},"lift":{"bool":false,"weight":0.75},"size":{"bool":false,"weight":0.75},"heavi":{"bool":false,"weight":0.75},"recycl":{"bool":false,"weight":0.75},"plastic":{"bool":false,"weight":0.75},"kind":{"bool":false,"weight":0.75},"unhelp":{"bool":false,"weight":0.75},"wall":{"bool":false,"weight":0.75},"carpet":{"bool":false,"weight":0.75},"paint":{"bool":false,"weight":0.75}}},
    {"category":"Call Centre","keywords":{"call wait tim":{"bool":false,"weight":0.75},"no respons":{"bool":false,"weight":0.75},"no repli":{"bool":false,"weight":0.75},"disconnect":{"bool":false,"weight":0.75},"issu":{"bool":false,"weight":0.75},"problem":{"bool":false,"weight":0.75},"opening hour":{"bool":false,"weight":0.75},"sale":{"bool":false,"weight":0.75},"complaint":{"bool":false,"weight":0.75},"injuri":{"bool":false,"weight":0.75},"watchdog":{"bool":false,"weight":0.75},"ombudsman":{"bool":false,"weight":0.75},"court":{"bool":false,"weight":0.75},"small claims court":{"bool":false,"weight":0.75},"media":{"bool":false,"weight":0.75},"social media":{"bool":false,"weight":0.75},"trustpilot":{"bool":false,"weight":0.75},"review":{"bool":false,"weight":0.75},"lawyer":{"bool":false,"weight":0.75},"abus":{"bool":false,"weight":0.75},"aggress":{"bool":false,"weight":0.75},"rude":{"bool":false,"weight":0.75},"ceo":{"bool":false,"weight":0.75},"transfer":{"bool":false,"weight":0.75},"refund":{"bool":false,"weight":0.75},"exchang":{"bool":false,"weight":0.75},"repair":{"bool":false,"weight":0.75},"homeserv":{"bool":false,"weight":0.75},"insur":{"bool":false,"weight":0.75},"delai":{"bool":false,"weight":0.75},"email":{"bool":false,"weight":0.75},"sm":{"bool":false,"weight":0.75},"in store credit":{"bool":false,"weight":0.75},"voucher":{"bool":false,"weight":0.75},"broken":{"bool":false,"weight":0.75},"burn":{"bool":false,"weight":0.75},"smoke":{"bool":false,"weight":0.75},"compens":{"bool":false,"weight":0.75},"hold":{"bool":false,"weight":0.75},"frniture guard":{"bool":false,"weight":0.75},"warranti":{"bool":false,"weight":0.75},"guarante":{"bool":false,"weight":0.75},"faq'":{"bool":false,"weight":0.75},"disabl":{"bool":false,"weight":0.75},"racist":{"bool":false,"weight":0.75},"discrimin":{"bool":false,"weight":0.75},"sexist":{"bool":false,"weight":0.75},"swear":{"bool":false,"weight":0.75},"trading standard":{"bool":false,"weight":0.75},"concern":{"bool":false,"weight":0.75},"empathi":{"bool":false,"weight":0.75},"cancel":{"bool":false,"weight":0.75},"polici":{"bool":false,"weight":0.75},"process":{"bool":false,"weight":0.75}}},
    {"category":"Customer Service","keywords":{"price match":{"bool":false,"weight":0.75},"servic":{"bool":false,"weight":0.75},"unfriendli":{"bool":false,"weight":0.75},"difficult":{"bool":false,"weight":0.75},"hard":{"bool":false,"weight":0.75},"relax":{"bool":false,"weight":0.75},"pressur":{"bool":false,"weight":0.75},"rude":{"bool":false,"weight":0.75},"friendli":{"bool":false,"weight":0.75},"easi":{"bool":false,"weight":0.75},"not pushi":{"bool":false,"weight":0.75},"pushi":{"bool":false,"weight":0.75},"help":{"bool":false,"weight":0.75},"knowledg":{"bool":false,"weight":0.75},"understand":{"bool":false,"weight":0.75},"busi":{"bool":false,"weight":0.75},"manag":{"bool":false,"weight":0.75},"assistant manag":{"bool":false,"weight":0.75},"hassle fre":{"bool":false,"weight":0.75},"honest":{"bool":false,"weight":0.75},"interest":{"bool":false,"weight":0.75},"genuin":{"bool":false,"weight":0.75},"impress":{"bool":false,"weight":0.75},"not impress":{"bool":false,"weight":0.75},"ly":{"bool":false,"weight":0.75},"welcom":{"bool":false,"weight":0.75},"disabl":{"bool":false,"weight":0.75},"warm":{"bool":false,"weight":0.75},"hurri":{"bool":false,"weight":0.75},"tidi":{"bool":false,"weight":0.75},"rush":{"bool":false,"weight":0.75},"untidi":{"bool":false,"weight":0.75},"profession":{"bool":false,"weight":0.75},"unprofession":{"bool":false,"weight":0.75},"mind":{"bool":false,"weight":0.75},"consider":{"bool":false,"weight":0.75},"recommend":{"bool":false,"weight":0.75},"listen":{"bool":false,"weight":0.75},"confus":{"bool":false,"weight":0.75},"happi":{"bool":false,"weight":0.75},"unhappi":{"bool":false,"weight":0.75},"attitud":{"bool":false,"weight":0.75},"behaviour":{"bool":false,"weight":0.75}}},
    {"category":"Product","keywords":{"qualiti":{"bool":false,"weight":0.75},"faulti":{"bool":false,"weight":0.75},"damag":{"bool":false,"weight":0.75},"select":{"bool":false,"weight":0.75},"choic":{"bool":false,"weight":0.75},"expens":{"bool":false,"weight":0.75},"cheap":{"bool":false,"weight":0.75},"sourc":{"bool":false,"weight":0.75},"colour":{"bool":false,"weight":0.75},"swatch":{"bool":false,"weight":0.75},"paint":{"bool":false,"weight":0.75},"tradit":{"bool":false,"weight":0.75},"modern":{"bool":false,"weight":0.75},"stylish":{"bool":false,"weight":0.75},"wardrob":{"bool":false,"weight":0.75},"sofa":{"bool":false,"weight":0.75},"bed":{"bool":false,"weight":0.75},"mattress":{"bool":false,"weight":0.75},"design":{"bool":false,"weight":0.75},"colour opt":{"bool":false,"weight":0.75},"leather":{"bool":false,"weight":0.75},"fabric":{"bool":false,"weight":0.75},"stool":{"bool":false,"weight":0.75},"bookcas":{"bool":false,"weight":0.75},"dining set":{"bool":false,"weight":0.75},"dining t":{"bool":false,"weight":0.75},"dining chair":{"bool":false,"weight":0.75},"tv unit":{"bool":false,"weight":0.75},"sideboard":{"bool":false,"weight":0.75},"coffee tabl":{"bool":false,"weight":0.75},"nest of t":{"bool":false,"weight":0.75},"side tabl":{"bool":false,"weight":0.75},"lamp tabl":{"bool":false,"weight":0.75},"display cabinet":{"bool":false,"weight":0.75},"clock":{"bool":false,"weight":0.75},"mirror":{"bool":false,"weight":0.75},"rug":{"bool":false,"weight":0.75},"wall art":{"bool":false,"weight":0.75},"storage cabinet":{"bool":false,"weight":0.75},"hallway cabinet":{"bool":false,"weight":0.75},"console t":{"bool":false,"weight":0.75},"desk":{"bool":false,"weight":0.75},"sofa b":{"bool":false,"weight":0.75},"caccent chair":{"bool":false,"weight":0.75},"armchair":{"bool":false,"weight":0.75},"reclin":{"bool":false,"weight":0.75},"modular sofa":{"bool":false,"weight":0.75},"footstool":{"bool":false,"weight":0.75},"chest of draw":{"bool":false,"weight":0.75},"tallboi":{"bool":false,"weight":0.75},"wideboi":{"bool":false,"weight":0.75},"wax":{"bool":false,"weight":0.75},"care kit":{"bool":false,"weight":0.75},"blanket box":{"bool":false,"weight":0.75}}},
    {"category":"Website","keywords":{"paypal":{"bool":false,"weight":0.75},"payment":{"bool":false,"weight":0.75},"timeout":{"bool":false,"weight":0.75},"error":{"bool":false,"weight":0.75},"deposit":{"bool":false,"weight":0.75},"page":{"bool":false,"weight":0.75},"crash":{"bool":false,"weight":0.75},"size":{"bool":false,"weight":0.75},"measur":{"bool":false,"weight":0.75},"dimens":{"bool":false,"weight":0.75},"product detail":{"bool":false,"weight":0.75},"specif":{"bool":false,"weight":0.75},"assembl":{"bool":false,"weight":0.75},"packag":{"bool":false,"weight":0.75},"materi":{"bool":false,"weight":0.75},"care":{"bool":false,"weight":0.75},"clean":{"bool":false,"weight":0.75},"construct":{"bool":false,"weight":0.75},"composit":{"bool":false,"weight":0.75},"faq'":{"bool":false,"weight":0.75},"question":{"bool":false,"weight":0.75},"answer":{"bool":false,"weight":0.75},"wishlist":{"bool":false,"weight":0.75},"contact":{"bool":false,"weight":0.75},"queri":{"bool":false,"weight":0.75},"hotlin":{"bool":false,"weight":0.75},"call centr":{"bool":false,"weight":0.75},"find a stor":{"bool":false,"weight":0.75},"checkout":{"bool":false,"weight":0.75},"add to basket":{"bool":false,"weight":0.75},"add to ord":{"bool":false,"weight":0.75},"basket":{"bool":false,"weight":0.75},"brows":{"bool":false,"weight":0.75},"amazon pai":{"bool":false,"weight":0.75},"bank trasnf":{"bool":false,"weight":0.75},"payment opt":{"bool":false,"weight":0.75},"guid":{"bool":false,"weight":0.75},"video call":{"bool":false,"weight":0.75},"chat":{"bool":false,"weight":0.75},"my account":{"bool":false,"weight":0.75},"log in":{"bool":false,"weight":0.75},"inform":{"bool":false,"weight":0.75},"sale":{"bool":false,"weight":0.75},"offer":{"bool":false,"weight":0.75},"price":{"bool":false,"weight":0.75},"always on sal":{"bool":false,"weight":0.75},"valu":{"bool":false,"weight":0.75},"avail":{"bool":false,"weight":0.75},"out of stock":{"bool":false,"weight":0.75},"easy to us":{"bool":false,"weight":0.75}}},
    {"category":"Marketing","keywords":{"advert":{"bool":false,"weight":0.75},"competit":{"bool":false,"weight":0.75},"market":{"bool":false,"weight":0.75},"offer":{"bool":false,"weight":0.75},"price":{"bool":false,"weight":0.75},"radio":{"bool":false,"weight":0.75},"sale":{"bool":false,"weight":0.75},"social media":{"bool":false,"weight":0.75},"tv advert":{"bool":false,"weight":0.75},"":{"bool":false,"weight":0.75}}},
    {"category":"Collegue","keywords":{"attitud":{"bool":false,"weight":0.75},"behaviour":{"bool":false,"weight":0.75},"staff":{"bool":false,"weight":0.75},"friendli":{"bool":false,"weight":0.75},"pushi":{"bool":false,"weight":0.75},"rude":{"bool":false,"weight":0.75},"happi":{"bool":false,"weight":0.75}}}
]